{
	"id": "42476557-3853-b43e-adac-404908dca9ca",
	"name": "db-relations",
	"description": "",
	"order": [
		"c7d47efe-1d45-cc67-97f1-c8b5be9d2aac",
		"2774d13e-592a-a2e1-580c-38eee3f8990e",
		"ff153616-1bee-52b9-3ec6-db3d1e11b746",
		"82a19470-9d54-3a6d-0c92-55e8d28e3eb9",
		"a5fb9242-dd26-ea91-81f9-f22c23d4b247",
		"ecd03a71-4e36-7cdc-ee95-303976868942",
		"f15f8dde-abf9-0180-bb83-3c22daaff541",
		"cc75dbde-01b4-ddd8-f6a0-6ff20dab0134",
		"d9ea32cb-7f28-eafb-babb-508c21dcff9d",
		"232a0052-e2bb-c61f-39be-6e2b806536a6"
	],
	"folders": [],
	"timestamp": 1489431779877,
	"owner": "1657169",
	"public": false,
	"requests": [
		{
			"id": "232a0052-e2bb-c61f-39be-6e2b806536a6",
			"headers": "",
			"url": "{{base-url}}/tech/{{tech-id}}",
			"preRequestScript": null,
			"pathVariables": {},
			"method": "DELETE",
			"data": null,
			"dataMode": "params",
			"tests": null,
			"currentHelper": "normal",
			"helperAttributes": {},
			"time": 1489434730220,
			"name": "deleteTech",
			"description": "",
			"collectionId": "42476557-3853-b43e-adac-404908dca9ca",
			"responses": []
		},
		{
			"id": "2774d13e-592a-a2e1-580c-38eee3f8990e",
			"headers": "",
			"url": "{{base-url}}/users/{{user-id-1}}",
			"preRequestScript": null,
			"pathVariables": {},
			"method": "GET",
			"data": null,
			"dataMode": "params",
			"version": 2,
			"tests": null,
			"currentHelper": "normal",
			"helperAttributes": {},
			"time": 1489433557998,
			"name": "getUserById",
			"description": "",
			"collectionId": "42476557-3853-b43e-adac-404908dca9ca",
			"responses": []
		},
		{
			"id": "82a19470-9d54-3a6d-0c92-55e8d28e3eb9",
			"headers": "Content-Type: application/json\n",
			"url": "{{base-url}}/users/{{user-id-1}}",
			"preRequestScript": null,
			"pathVariables": {},
			"method": "PUT",
			"data": [],
			"dataMode": "raw",
			"tests": null,
			"currentHelper": "normal",
			"helperAttributes": {},
			"time": 1489432126560,
			"name": "updateUser",
			"description": "",
			"collectionId": "42476557-3853-b43e-adac-404908dca9ca",
			"responses": [],
			"rawModeData": "{\n\t\"name\": \"updated captain\"\n}"
		},
		{
			"id": "a5fb9242-dd26-ea91-81f9-f22c23d4b247",
			"headers": "",
			"url": "{{base-url}}/users/{{user-id-1}}",
			"preRequestScript": null,
			"pathVariables": {},
			"method": "DELETE",
			"data": null,
			"dataMode": "params",
			"version": 2,
			"tests": null,
			"currentHelper": "normal",
			"helperAttributes": {},
			"time": 1489433555975,
			"name": "deleteUser",
			"description": "",
			"collectionId": "42476557-3853-b43e-adac-404908dca9ca",
			"responses": []
		},
		{
			"id": "c7d47efe-1d45-cc67-97f1-c8b5be9d2aac",
			"headers": "",
			"url": "{{base-url}}/users",
			"preRequestScript": null,
			"pathVariables": {},
			"method": "GET",
			"data": null,
			"dataMode": "params",
			"version": 2,
			"tests": null,
			"currentHelper": "normal",
			"helperAttributes": {},
			"time": 1489432016202,
			"name": "getAllUsers",
			"description": "",
			"collectionId": "42476557-3853-b43e-adac-404908dca9ca",
			"responses": []
		},
		{
			"id": "cc75dbde-01b4-ddd8-f6a0-6ff20dab0134",
			"headers": "Content-Type: application/json\n",
			"url": "{{base-url}}/tech",
			"preRequestScript": null,
			"pathVariables": {},
			"method": "POST",
			"data": [],
			"dataMode": "raw",
			"tests": null,
			"currentHelper": "normal",
			"helperAttributes": {},
			"time": 1489435161726,
			"name": "createTech",
			"description": "",
			"collectionId": "42476557-3853-b43e-adac-404908dca9ca",
			"responses": [],
			"rawModeData": "{\n\t\"name\": \"javascript\",\n\t\"version\": \"1\"\n}"
		},
		{
			"id": "d9ea32cb-7f28-eafb-babb-508c21dcff9d",
			"headers": "Content-Type: application/json\n",
			"url": "{{base-url}}/tech/{{tech-id}}",
			"preRequestScript": null,
			"pathVariables": {},
			"method": "PUT",
			"data": [],
			"dataMode": "raw",
			"tests": null,
			"currentHelper": "normal",
			"helperAttributes": {},
			"time": 1489434933967,
			"name": "updateTech",
			"description": "",
			"collectionId": "42476557-3853-b43e-adac-404908dca9ca",
			"responses": [],
			"rawModeData": "{\n\t\"name\": \"update java\",\n\t\"version\": \"2\"\n}"
		},
		{
			"id": "ecd03a71-4e36-7cdc-ee95-303976868942",
			"headers": "",
			"url": "{{base-url}}/tech",
			"preRequestScript": null,
			"pathVariables": {},
			"method": "GET",
			"data": null,
			"dataMode": "params",
			"tests": null,
			"currentHelper": "normal",
			"helperAttributes": {},
			"time": 1489434642463,
			"name": "getAllTechs",
			"description": "",
			"collectionId": "42476557-3853-b43e-adac-404908dca9ca",
			"responses": []
		},
		{
			"id": "f15f8dde-abf9-0180-bb83-3c22daaff541",
			"headers": "",
			"url": "{{base-url}}/tech/{{tech-id}}",
			"preRequestScript": null,
			"pathVariables": {},
			"method": "GET",
			"data": null,
			"dataMode": "params",
			"tests": null,
			"currentHelper": "normal",
			"helperAttributes": {},
			"time": 1489434670316,
			"name": "getTechById",
			"description": "",
			"collectionId": "42476557-3853-b43e-adac-404908dca9ca",
			"responses": []
		},
		{
			"id": "ff153616-1bee-52b9-3ec6-db3d1e11b746",
			"headers": "Content-Type: application/json\n",
			"url": "{{base-url}}/users",
			"preRequestScript": null,
			"pathVariables": {},
			"method": "POST",
			"data": [],
			"dataMode": "raw",
			"version": 2,
			"tests": null,
			"currentHelper": "normal",
			"helperAttributes": {},
			"time": 1489435145190,
			"name": "createUser",
			"description": "",
			"collectionId": "42476557-3853-b43e-adac-404908dca9ca",
			"responses": [],
			"rawModeData": "{\n\t\"name\": \"captain\"\n}"
		}
	]
}